%YAML 1.1
%TAG !u! tag:unity3d.com,2011:
--- !u!78 &1
TagManager:
  serializedVersion: 2
  tags: []
  layers:
  - Default
  - TransparentFX
  - Ignore Raycast
  - 
  - Water
  - UI
  - 
  - 
  - 
  - 
  - 
  - 
  - 
  - 
  - 
  - 
  - 
  - 
  - 
  - 
  - 
  - 
  - 
  - 
  - 
  - 
  - 
  - 
  - 
  - 
  - 
  - 
  m_SortingLayers:
  - name: Default
    uniqueID: 0
    locked: 0
  - name: Background
    uniqueID: 3822340273
    locked: 0
  - name: Floor
    uniqueID: 1698342699
    locked: 0
  - name: Walls
    uniqueID: 757100641
    locked: 0
  - name: Target
    uniqueID: 1345723107
    locked: 0
  - name: Box
    uniqueID: 3495212065
    locked: 0
  - name: Player
    uniqueID: 3664711789
    locked: 0
